Statistical inference with the GSS data
…
2. Success-failure condition (SF condition):

# check SF condition for CI
#
# p_hat : sample proportion (used as approximation for true proportion p)
# SF condition: n_total * p_hat > 10 & n_total * (1 - p_hat) > 10 == TRUE
#
gss_result_01 <- gss_result_01 %>% 
  mutate(SF_CI = ifelse(n_total*p_hat>10 &
                          n_total*(1-p_hat)>10, "TRUE", "FALSE")
           )
gss_result_01

## # A tibble: 21 × 6
## # Groups:   year [21]
##     year suicide1 n_resp n_total p_hat SF_CI
##    <int> <fct>     <int>   <int> <dbl> <chr>
##  1  1977 Yes         578    1475 0.392 TRUE 
##  2  1978 Yes         588    1483 0.396 TRUE 
##  3  1982 Yes         754    1768 0.426 TRUE 
##  4  1983 Yes         760    1530 0.497 TRUE 
##  5  1985 Yes         675    1480 0.456 TRUE 
##  6  1986 Yes         758    1420 0.534 TRUE 
##  7  1988 Yes         492     946 0.520 TRUE 
##  8  1989 Yes         469     957 0.490 TRUE 
##  9  1990 Yes         519     873 0.595 TRUE 
## 10  1991 Yes         579     987 0.587 TRUE 
## # ℹ 11 more rows
…
p0 <- 0.5
# check SF condition for HT
gss_result_01 <- gss_result_01 %>% 
  mutate(SF_HT = ifelse(n_total*p0>10 & n_total*(1-p0)>10, "TRUE", "FALSE")
  )

gss_result_01_view <- gss_result_01 %>% 
  select(year, n_total, p_hat, SF_HT)
gss_result_01_view

## # A tibble: 21 × 4
## # Groups:   year [21]
##     year n_total p_hat SF_HT
##    <int>   <int> <dbl> <chr>
##  1  1977    1475 0.392 TRUE 
##  2  1978    1483 0.396 TRUE 
##  3  1982    1768 0.426 TRUE 
##  4  1983    1530 0.497 TRUE 
##  5  1985    1480 0.456 TRUE 
##  6  1986    1420 0.534 TRUE 
##  7  1988     946 0.520 TRUE 
##  8  1989     957 0.490 TRUE 
##  9  1990     873 0.595 TRUE 
## 10  1991     987 0.587 TRUE 
## # ℹ 11 more rows
…
gss_result_01 <- gss_result_01 %>% 
  filter(SF_HT == TRUE) %>% 
  mutate(se_ht = sqrt(p0*(1-p0)/n_total),
         Z = (p_hat - p0)/se_ht,
         p_value = pnorm(Z, lower.tail = FALSE),
         test_result = ifelse(p_value < alpha, "There is a majority", "No majority")
  )

gss_result_01_view <- gss_result_01 %>% 
  select(year, p_hat, SF_HT, se_ht, Z, p_value, test_result)
gss_result_01_view

## # A tibble: 21 × 7
## # Groups:   year [21]
##     year p_hat SF_HT  se_ht      Z      p_value test_result        
##    <int> <dbl> <chr>  <dbl>  <dbl>        <dbl> <chr>              
##  1  1977 0.392 TRUE  0.0130 -8.31  1            No majority        
##  2  1978 0.396 TRUE  0.0130 -7.97  1.00         No majority        
##  3  1982 0.426 TRUE  0.0119 -6.18  1.00         No majority        
##  4  1983 0.497 TRUE  0.0128 -0.256 0.601        No majority        
##  5  1985 0.456 TRUE  0.0130 -3.38  1.00         No majority        
##  6  1986 0.534 TRUE  0.0133  2.55  0.00542      There is a majority
##  7  1988 0.520 TRUE  0.0163  1.24  0.108        No majority        
##  8  1989 0.490 TRUE  0.0162 -0.614 0.730        No majority        
##  9  1990 0.595 TRUE  0.0169  5.58  0.0000000117 There is a majority
## 10  1991 0.587 TRUE  0.0159  5.44  0.0000000262 There is a majority
## # ℹ 11 more rows
…
gss_result_02 <- gss_result_02 %>% 
  filter(SF_HT == TRUE) %>% 
  mutate(se_ht = sqrt(p_pool*(1-p_pool)/n_white +
                      p_pool*(1-p_pool)/n_non_white),
         Z = (p_hat_diff - p0_diff)/se_ht,
         p_value = 2 * pnorm(abs(Z), lower.tail = FALSE),
         test_result = ifelse(p_value < alpha, "There is a difference", "No difference")
  )

df_H0_reject <- gss_result_02 %>% 
#  filter(test_result == "There is a difference") %>% 
  select(year, p_hat_diff, lower, upper, se_ht, Z, p_value, test_result)
df_H0_reject

## # A tibble: 24 × 8
## # Groups:   year [24]
##     year p_hat_diff     lower  upper  se_ht     Z      p_value test_result      
##    <int>      <dbl>     <dbl>  <dbl>  <dbl> <dbl>        <dbl> <chr>            
##  1  1973     0.0562 -0.0171   0.129  0.0365 1.54  0.124        No difference    
##  2  1974     0.0340 -0.0427   0.111  0.0387 0.878 0.380        No difference    
##  3  1976     0.160   0.0724   0.247  0.0434 3.69  0.000226     There is a diffe…
##  4  1977     0.0639 -0.0116   0.139  0.0379 1.69  0.0918       No difference    
##  5  1980     0.0344 -0.0480   0.117  0.0414 0.831 0.406        No difference    
##  6  1982     0.145   0.0951   0.196  0.0255 5.70  0.0000000122 There is a diffe…
##  7  1984     0.0442 -0.0251   0.113  0.0346 1.28  0.202        No difference    
##  8  1985     0.0750  0.000395 0.150  0.0369 2.03  0.0419       There is a diffe…
##  9  1987     0.0487  0.00138  0.0959 0.0239 2.04  0.0416       There is a diffe…
## 10  1988     0.0685 -0.0113   0.148  0.0396 1.73  0.0838       No difference    
## # ℹ 14 more rows
…
